<?xml version="1.0" encoding="utf-8"?>
<!-- Generator: Adobe Illustrator 17.0.0, SVG Export Plug-In . SVG Version: 6.00 Build 0)  -->
<!DOCTYPE svg PUBLIC "-//W3C//DTD SVG 1.1//EN" "http://www.w3.org/Graphics/SVG/1.1/DTD/svg11.dtd">
<svg version="1.1" id="Layer_1" xmlns="http://www.w3.org/2000/svg" xmlns:xlink="http://www.w3.org/1999/xlink" x="0px" y="0px"
	 width="68px" height="68px" viewBox="0 0 68 68" enable-background="new 0 0 68 68" xml:space="preserve">
<rect y="0" display="none" fill="#33383C" width="68" height="68"/>
<g id="Star_17_">
	<path d="M43.968,47.954c-0.159,0-0.319-0.038-0.465-0.115l-8.308-4.367l-8.308,4.367c-0.336,0.177-0.745,0.147-1.053-0.076
		c-0.308-0.224-0.462-0.603-0.398-0.978l1.587-9.25l-6.721-6.551c-0.272-0.266-0.371-0.663-0.253-1.025
		c0.118-0.362,0.431-0.626,0.808-0.681l9.288-1.35l4.153-8.416c0.337-0.683,1.457-0.683,1.793,0l4.154,8.416l9.288,1.35
		c0.376,0.055,0.689,0.319,0.807,0.681c0.118,0.362,0.02,0.759-0.253,1.025l-6.721,6.552l1.586,9.25
		c0.064,0.375-0.09,0.754-0.398,0.978C44.382,47.89,44.175,47.954,43.968,47.954z M35.195,41.343c0.16,0,0.32,0.038,0.465,0.115
		l6.979,3.669l-1.333-7.771c-0.055-0.324,0.052-0.655,0.288-0.885l5.646-5.504l-7.803-1.134c-0.326-0.047-0.607-0.252-0.752-0.547
		l-3.49-7.071l-3.489,7.071c-0.146,0.295-0.427,0.5-0.753,0.547l-7.804,1.134l5.647,5.504c0.235,0.23,0.343,0.561,0.288,0.885
		l-1.333,7.771l6.979-3.669C34.875,41.381,35.035,41.343,35.195,41.343z"/>
</g>
</svg>
