<?xml version="1.0" encoding="utf-8"?>
<!-- Generator: Adobe Illustrator 17.0.0, SVG Export Plug-In . SVG Version: 6.00 Build 0)  -->
<!DOCTYPE svg PUBLIC "-//W3C//DTD SVG 1.1//EN" "http://www.w3.org/Graphics/SVG/1.1/DTD/svg11.dtd">
<svg version="1.1" id="Layer_1" xmlns="http://www.w3.org/2000/svg" xmlns:xlink="http://www.w3.org/1999/xlink" x="0px" y="0px"
	 width="68px" height="68px" viewBox="0 0 68 68" enable-background="new 0 0 68 68" xml:space="preserve">
<rect x="0" y="0" display="none" fill="#33383C" width="68" height="68"/>
<path id="twitter_1_" fill="#FFFFFF" d="M49.003,25.597c-0.993,0.441-2.061,0.739-3.182,0.872c1.144-0.685,2.022-1.771,2.436-3.065
	c-1.07,0.635-2.255,1.096-3.518,1.345C43.729,23.673,42.289,23,40.696,23c-3.059,0-5.539,2.48-5.539,5.539
	c0,0.434,0.049,0.857,0.143,1.262c-4.604-0.231-8.686-2.436-11.418-5.787c-0.477,0.818-0.75,1.769-0.75,2.785
	c0,1.922,0.978,3.617,2.464,4.611c-0.908-0.029-1.762-0.278-2.509-0.693c0,0.023,0,0.046,0,0.07c0,2.683,1.909,4.922,4.444,5.432
	c-0.465,0.126-0.954,0.194-1.46,0.194c-0.357,0-0.704-0.035-1.042-0.1c0.705,2.201,2.751,3.802,5.174,3.847
	c-1.896,1.486-4.284,2.371-6.88,2.371c-0.447,0-0.888-0.027-1.321-0.077c2.452,1.572,5.363,2.489,8.491,2.489
	c10.189,0,15.76-8.441,15.76-15.761c0-0.24-0.005-0.479-0.016-0.717C47.321,27.684,48.261,26.708,49.003,25.597z"/>
</svg>
